{
  "userid": "$report_details.emailAddress",
  "userName": "$report_details.userName",
  "amount": "0.00",
  "curr": "INR",
  "country": "IN",
  "date": "2020-11-16T18:36:39",
  "orgId": "8041",
  "reportNumber": "$report_name_pattern",
  "reportName": "Covid WFH Internet charges",
  "elines": [
    {
      "elineid": "1",
      "eldate": "Wed, Sep 09, 2020",
      "elpurpose": "Wifi Charges",
      "elinetype": "CASH",
      "eltype": "Telephone/Internet/Fax",
      "elamount": "1000.00",
      "elpaidamount": "1000.00",
      "elcurr": "INR",
      "elpaidcurr": "INR",
      "elconvrate": "1.00000000000000",
      "elimagetype": "jpeg",
      "elpersonalflag": "N",
      "elvatflag": "N",
      "elItemizedFlag": "false",
      "elimageid": [
        "f4e7a991-0441-427b-ac93-664ca0a98cdf"
      ],
      "missingReceipt": "N",
      "eldetails": [
        {
          "value": "ACT",
          "fieldName": "MERCHANT"
        },
        {
          "value": "Bangalore",
          "fieldName": "LocationCity"
        },
        {
          "value": "IN",
          "fieldName": "LocationCountry"
        }
      ],
      "elattendees": [

      ],
      "elallocs": [
        {
          "amount": "0.000000000000000000000000000000",
          "custom1": {
            "fieldName": "Custom1",
            "text": "SAPGlobal",
            "value": "SAPGlobal"
          },
          "custom2": {
            "fieldName": "Custom2",
            "text": "Appzen Labs India Pvt Ltd.",
            "value": "3729"
          },
          "custom3": {
            "fieldName": "Custom3",
            "text": "CMO -MARKETS -BANGAL",
            "value": "268853"
          },
          "custom4": {
            "fieldName": "Custom4",
            "text": "Appzen Labs India Pvt Ltd.",
            "value": "3730"
          },
          "costCenter": {
            "fieldName": "Custom3",
            "text": "CMO -MARKETS -BANGAL",
            "value": "268853"
          }
        }
      ],
      "elineuniqueid": "1",
      "elExternalLineId": "gWmLBYWqbLLPTrv3hcoN1gHelWZn7Do6Wpw",
      "cardTransactionDetails": {

      },
      "custom1": {
        "fieldName": "Custom1",
        "text": "Internet - Work From Home",
        "value": "Internet - Work From Home"
      },
      "custom35": {
        "fieldName": "Custom35",
        "value": "IN"
      }
    }
  ],
  "reportLevelImage": "f4e7a991-0441-427b-ac93-664ca0a98cdf",
  "status": "Pending External Validation",
  "reportLevelImageArray": [
    "8fd7d66f-78d9-4e30-b99d-1a2933c6497a"
  ],
  "resubmit": false,
  "addendum": false,
  "orgUnit1": "(SAPGlobal)SAPGlobal",
  "orgUnit2": "Appzen Labs India Pvt Ltd.",
  "orgUnit3": "Appzen Labs India Pvt Ltd.",
  "orgUnit4": "Appzen Labs India Pvt Ltd.",
  "custom1": {
    "fieldName": "Custom1",
    "text": "Special Purpose #19 (Use as Instructed)",
    "value": "Special Purpose #19"
  },
  "custom3": {
    "fieldName": "Custom3",
    "value": "N"
  },
  "custom18": {
    "fieldName": "Custom18",
    "text": "Corporate \u0026 Investment Bank",
    "value": "CIB"
  },
  "custom19": {
    "fieldName": "Custom19",
    "text": "India",
    "value": "IN"
  },
  "custom20": {
    "fieldName": "Custom20",
    "text": "Asia Pacific",
    "value": "APAC"
  },
  "force": false
}