{
  "expenseLineId": null,
  "elineid": "$elineId",
  "eldate": "2021-03-01T19:16:43.788+0530",
  "elpurpose": "$expense_purposes",
  "elinetype": "CASH",
  "eltype": "$expense_types",
  "elamount": "0.000",
  "elpaidamount": "0.000",
  "elcurr": "INR",
  "elpaidcurr": "INR",
  "elconvrate": "1.00000000000000",
  "elcostcenter": null,
  "elprojectno": null,
  "eltaskno": null,
  "elprojectid": null,
  "eltaskid": null,
  "elmileagerate": null,
  "elmileagedist": null,
  "elmileageuom": null,
  "elccid": null,
  "elimage": null,
  "elimageindb": null,
  "elimagetype": "png",
  "elineinfo": null,
  "elpersonalflag": "N",
  "elvatflag": "N",
  "elParentLineNumber": null,
  "elItemizedLineNumber": null,
  "elItemizedFlag": "false",
  "elineTimeStamp": null,
  "elimageid": [
    "2bb30685-fb8e-4bb4-8a79-4f78335651c6"
  ],
  "elImageDetailsArray": [
    
  ],
  "missingReceipt": "N",
  "eldetails": [
    
  ],
  "elaccounts": null,
  "elattendees": [
    
  ],
  "elviolations": null,
  "elallocs": [
    {
      "amount": "0.000",
      "custom1": {
        "fieldName": "Custom1",
        "text": "US",
        "value": "101"
      },
      "custom2": {
        "fieldName": "Custom2",
        "text": "Marketing",
        "value": "2001"
      },
      "custom3": null,
      "custom4": null,
      "custom5": null,
      "custom6": null,
      "custom7": null,
      "custom8": null,
      "custom9": null,
      "custom10": null,
      "custom11": null,
      "custom12": null,
      "custom13": null,
      "custom14": null,
      "custom15": null,
      "custom16": null,
      "custom17": null,
      "custom18": null,
      "custom19": null,
      "custom20": null,
      "custom21": null,
      "custom22": null,
      "custom23": null,
      "custom24": null,
      "custom25": null
    }
  ],
  "elcompliances": null,
  "elineuniqueid": "21SYNTHETIC_REPORT_3",
  "elcardsource": null,
  "eldiffamt": null,
  "elfuncamt": null,
  "elWayPoints": null,
  "elMileageUrl": null,
  "elsource": null,
  "eldestination": null,
  "elExternalLineId": "gWtDiMfe5zFneO3VJcT3q$pVvXPahUEzvcmQ",
  "cardTransactionDetails": {
    "AccountNumber": null,
    "CardDescription": null,
    "CardTypeCode": null,
    "TransactionReferenceNumber": null,
    "TransactionCCTType": null,
    "TransactionID": null,
    "TransactionAmount": null,
    "TaxAmount": null,
    "TransactionAlphaCode": null,
    "PostedAmount": null,
    "PostedAlphaCode": null,
    "TransactionDate": null,
    "PostedDate": null,
    "Description": null,
    "MasterCardCode": null,
    "TransactionMerchantName": null,
    "MerchantCity": null,
    "MerchantState": null,
    "MerchantCountryCode": null,
    "MerchantReferenceNumber": null,
    "ExchangeRateFromBillingToEmployeeCurrency": null,
    "AccountNumberLastSegment": null,
    "CardProgramName": null,
    "SIC_Code": null,
    "merchantId": null
  },
  "comments": null,
  "orgUnit1": "(101)US",
  "orgUnit2": "(2001)Marketing",
  "orgUnit3": null,
  "orgUnit4": null,
  "orgUnit5": null,
  "orgUnit6": null,
  "custom1": null,
  "custom2": null,
  "custom3": null,
  "custom4": null,
  "custom5": null,
  "custom6": null,
  "custom7": null,
  "custom8": null,
  "custom9": null,
  "custom10": null,
  "custom11": null,
  "custom12": null,
  "custom13": null,
  "custom14": null,
  "custom15": null,
  "custom16": null,
  "custom17": null,
  "custom18": null,
  "custom19": null,
  "custom20": null,
  "custom21": null,
  "customd22": null,
  "custom23": null,
  "custom24": null,
  "custom25": null,
  "custom26": null,
  "custom27": null,
  "custom28": null,
  "custom29": null,
  "custom30": null,
  "custom31": null,
  "custom32": null,
  "custom33": null,
  "custom34": null,
  "custom35": null,
  "custom36": null,
  "custom37": null,
  "custom38": null,
  "custom39": null,
  "custom40": null
}