{
  "reportName": "$reportName",
  "curr": "INR",
  "userId": "$userName",
  "elines": [
    {
      "elItemizedFlag": "false",
      "eldate_epoch": 1482364800,
      "curr": "INR",
      "elpersonalflag": "N",
      "userId": "865768@amazon.com",
      "elcurr": "INR",
      "elimagetype": "pdf",
      "elpurpose": "Refreshments for 1st Social Friday in Invictus held on Thursday",
      "report_submission_date": "02-FEB-17",
      "ocr_data": {
        "city": "seattle",
        "country": "",
        "amount": 275.97,
        "state": "united states",
        "date": "",
        "merchant_name": "ingallinas box lunch"
      },
      "user_entered_location": "Seattle",
      "merchant_category": null,
      "expenseDate": "Thu Dec 22 00:00:00 UTC 2016",
      "expense_stats": {
        "amount": 275.97,
        "expense_type": "Meal"
      },
      "elamount": 275.97,
      "missingReceipt": "N",
      "user_normalized_location": {
        "city": "seattle",
        "country": "united states",
        "longitude": -122.3320708,
        "state": "washington",
        "latitude": 47.6062095,
        "state_code": "wa",
        "formatted_address": "Seattle, WA, USA"
      },
      "violations_dict": {
        "price_audit": {
          "high": 0,
          "medium": 0
        },
        "cost_out_of_range": {
          "high": 0,
          "medium": 0
        },
        "no_attendees": {
          "foriegn_and_exceeds_threshold": {
            "high": 0,
            "medium": 0
          },
          "exceeds_threshold": 0,
          "total": 0,
          "foriegn_countries": {
            "high_risk_countries": 0,
            "medium_risk_countries": 0
          }
        },
        "weekend_expense": 0,
        "exceeds_threshold": 0,
        "exceeds_threshold_exl_AMCH": 0,
        "duplicate_across_employees": 0,
        "duplicate_for_same_employee_across_expenses": 0,
        "merchant_violation_exceeds_threshold": {
          "high": 0,
          "medium": 0
        },
        "fcpa_compliance_check": {
          "high": 0,
          "medium": 0
        },
        "duplicate_within_a_report": 0,
        "receipt_verification": {
          "high": 0,
          "medium": 0
        },
        "expense_age": 0,
        "merchant_category_spending_occurrence": 0
      },
      "elconvrate": "1.00000000000000",
      "temp_appzen_category": {
        "customer_expense_types": [
          "Business Meals - 66030"
        ],
        "appzen_expense_type": "Meal"
      },
      "elineid": "1",
      "elweekday": "Thursday",
      "mcc_code": "5811",
      "erisk": {
        "reasons": [
          "No unauthorized items were detected."
        ],
        "report": [
          {
            "category": "receipt verification",
            "rules": [
              {
                "data": [
                  {
                    "header": "User Input",
                    "parameters": [
                      {
                        "value": 275.97,
                        "key": "Amount"
                      },
                      {
                        "value": "22-DEC-16",
                        "key": "Transaction Date"
                      },
                      {
                        "value": "USD",
                        "key": "Currency"
                      },
                      {
                        "value": 0.25,
                        "key": "Acceptable deviation in transaction amount"
                      },
                      {
                        "value": 0,
                        "key": "Acceptable deviation in transaction date"
                      },
                      {
                        "value": "INGALLINA'S BOX LUNCH",
                        "key": "Merchant"
                      },
                      {
                        "value": "Seattle",
                        "key": "Location"
                      },
                      {
                        "value": "",
                        "key": "OCR Code"
                      },
                      {
                        "value": "",
                        "key": "Inferred AppZen Type"
                      }
                    ]
                  },
                  {
                    "header": "Receipt Information",
                    "parameters": [
                      {
                        "value": "275.97",
                        "key": "Amount"
                      },
                      {
                        "value": null,
                        "key": "Transaction Date"
                      },
                      {
                        "value": "USD",
                        "key": "Currency"
                      },
                      {
                        "value": 0.25,
                        "key": "Acceptable deviation in transaction amount"
                      },
                      {
                        "value": 0,
                        "key": "Acceptable deviation in transaction date"
                      },
                      {
                        "value": "ingallinas box lunch",
                        "key": "Merchant"
                      },
                      {
                        "value": "seattle, united states",
                        "key": "Location"
                      },
                      {
                        "value": "2D",
                        "key": "OCR Code"
                      },
                      {
                        "value": "Meal",
                        "key": "Inferred AppZen Type"
                      }
                    ]
                  }
                ],
                "risk_level": "LOW",
                "risk_message": "All applicable information on the receipt matches the user input",
                "rule": "receipt verification",
                "result": "Receipt verified"
              }
            ]
          },
          {
            "category": "FCPA compliance check",
            "rules": [
              {
                "data": [
                  {
                    "header": "FCPA data",
                    "parameters": [
                      {
                        "value": "LOW",
                        "key": "Location Risk"
                      },
                      {
                        "value": "",
                        "key": "Minimum Value (FCPA)"
                      },
                      {
                        "value": "United States",
                        "key": "Expense Location"
                      },
                      {
                        "value": "Meal",
                        "key": "Expense Category"
                      },
                      {
                        "value": "LOW",
                        "key": "Threshold Risk (FCPA)"
                      },
                      {
                        "value": "LOW",
                        "key": "Category Risk"
                      },
                      {
                        "value": "",
                        "key": "Threshold (maximum allowed FCPA amount for expense type)"
                      },
                      {
                        "value": "137.99",
                        "key": "Expense Amount"
                      }
                    ]
                  }
                ],
                "risk_level": "LOW",
                "risk_message": "This expense is FCPA compliant.",
                "rule": "FCPA compliance check",
                "result": "Passed"
              }
            ]
          },
          {
            "category": "merchant check",
            "rules": [
              {
                "data": [
                  {
                    "header": "Merchant Category Check Data",
                    "parameters": [
                      {
                        "value": "",
                        "key": "Category"
                      }
                    ]
                  }
                ],
                "risk_level": "LOW",
                "risk_message": "This merchant (INGALLINA'S BOX LUNCH) is not associated with any suspicious activity",
                "rule": "merchant category check",
                "result": "Passed"
              }
            ]
          },
          {
            "category": "Attendee Verification",
            "rules": [
              {
                "data": [
                  {
                    "header": "Attendee Verification data",
                    "parameters": [
                      {
                        "value": "There is insufficient evidence that  PwA Team Seattle is potentially a Politically Exposed Person (PEP).",
                        "key": " PwA Team Seattle"
                      },
                      {
                        "value": "Employee",
                        "key": "Gracelyn Sales"
                      }
                    ]
                  }
                ],
                "risk_level": "LOW",
                "risk_message": "There is insufficient evidence that any of the attendees is potentially a Politically Exposed Person (PEP).",
                "rule": "Attendee Verification",
                "result": "Passed"
              }
            ]
          },
          {
            "category": "weekend expense",
            "rules": [
              {
                "data": [
                  {
                    "header": "",
                    "parameters": [
                      {
                        "value": "22-DEC-16",
                        "key": "Transaction date"
                      },
                      {
                        "value": "Thursday",
                        "key": "Transaction day"
                      }
                    ]
                  }
                ],
                "risk_level": "LOW",
                "risk_message": "This expense is not incurred during weekend days.",
                "rule": "weekend expense",
                "result": "Passed"
              }
            ]
          },
          {
            "category": "expense age verification",
            "rules": [
              {
                "data": [
                  {
                    "header": "",
                    "parameters": [
                      {
                        "value": "22-DEC-16",
                        "key": "Transaction date"
                      },
                      {
                        "value": "02-FEB-17",
                        "key": "Date the employee submitted the expense"
                      },
                      {
                        "value": 180,
                        "key": "Maximum allowed time gap (days)"
                      },
                      {
                        "value": 42,
                        "key": "Expense Age (days)"
                      }
                    ]
                  }
                ],
                "risk_level": "LOW",
                "risk_message": "The transaction was made within accepted date.",
                "rule": "expense age",
                "result": "Passed"
              }
            ]
          },
          {
            "category": "duplicate check",
            "rules": [
              {
                "data": [
                  {
                    "header": "Duplicate Line",
                    "parameters": [
                      {
                        "value": "",
                        "key": "Attributes Compared"
                      }
                    ]
                  }
                ],
                "risk_level": "LOW",
                "risk_message": "No duplicate expense line was detected within the same report",
                "rule": "duplicate within a report",
                "result": "Passed"
              },
              {
                "data": [
                  {
                    "header": "Duplicate Line",
                    "parameters": [
                      {
                        "value": "",
                        "key": "Attributes Compared"
                      }
                    ]
                  }
                ],
                "risk_level": "LOW",
                "risk_message": "No duplicate expense line was detected amoung this employee's other expense reports",
                "rule": "duplicate across expenses",
                "result": "Passed"
              },
              {
                "data": [
                  {
                    "header": "Duplicate Line",
                    "parameters": [
                      {
                        "value": "",
                        "key": "Attributes Compared"
                      }
                    ]
                  }
                ],
                "risk_level": "LOW",
                "risk_message": "No duplicate expense line was detected among other employees' expense reports",
                "rule": "duplicate across employees",
                "result": "Passed"
              }
            ]
          },
          {
            "category": "Unauthorized Expenses",
            "rules": [
              {
                "data": [
                  {
                    "header": "Unauthorized Expenses Data",
                    "parameters": [
                      
                    ]
                  }
                ],
                "risk_level": "LOW",
                "risk_message": "No unauthorized items were detected.",
                "rule": "Unauthorized Expenses",
                "result": "Passed"
              }
            ]
          },
          {
            "category": "Personal Credit Card Violation",
            "rules": [
              {
                "data": [
                  {
                    "header": "Personal Credit Card Violation Data",
                    "parameters": [
                      
                    ]
                  }
                ],
                "risk_level": "LOW",
                "risk_message": "No personal credit cards were detected.",
                "rule": "Personal Credit Card Violation",
                "result": "Passed"
              }
            ]
          }
        ],
        "data": {
          "merchant": [
            
          ],
          "duplicate_across_employees": {
            "risk": 0,
            "details": {
              
            }
          },
          "duplicate_for_same_employee_across_expenses": {
            "risk": 0,
            "details": {
              "attributes": "amount, date, merchant"
            }
          },
          "unauth_expense": {
            "message": "No unauthorized items were detected.",
            "data": {
              
            },
            "risk": 0,
            "unauth_items_string": ""
          },
          "fcpa_compliance_check": {
            "message": "",
            "data": {
              "Location Risk": "LOW",
              "Minimum Value (FCPA)": "",
              "Expense Location": "United States",
              "Expense Category": "Meal",
              "Threshold Risk (FCPA)": "LOW",
              "Category Risk": "LOW",
              "Threshold (maximum allowed FCPA amount for expense type)": "",
              "Expense Amount": "137.99"
            },
            "risk": 0
          },
          "personal_cc_check": {
            "message": "No personal credit cards were detected.",
            "data": {
              
            },
            "risk": 0
          },
          "duplicate_within_a_report": {
            "risk": 0,
            "details": {
              "attributes": "merchant, amount, date"
            }
          },
          "attendee_check": {
            "Business_Guest_Present": true,
            "message": "There is insufficient evidence that any of the attendees is potentially a Politically Exposed Person (PEP).",
            "risk": 0,
            "details": {
              " PwA Team Seattle": "There is insufficient evidence that  PwA Team Seattle is potentially a Politically Exposed Person (PEP).",
              "Gracelyn Sales": "Employee"
            }
          },
          "expense_age": {
            "reference_date": "22-DEC-16",
            "maximum_days": 180,
            "day_diff": 42,
            "risk": 0,
            "report_submission_date": "02-FEB-17"
          },
          "Statistical_Modeling": {
            
          },
          "reasons": [
            "No unauthorized items were detected."
          ]
        },
        "level": "LOW"
      },
      "eriskComebined": 0,
      "elimageid": [
        "5b5be2ae-c1bf-49a0-bf81-7d369b3f4ccb"
      ],
      "ocr": {
        "infor": {
          "language": "en"
        }
      },
      "eldetails": [
        {
          "fieldName": "MERCHANT",
          "value": "INGALLINA'S BOX LUNCH"
        },
        {
          "fieldName": "LocationCity",
          "value": "Seattle"
        },
        {
          "fieldName": "LocationSubdivision",
          "value": "US-WA"
        },
        {
          "fieldName": "LocationCountry",
          "value": "US"
        },
        {
          "fieldName": "State",
          "value": "WA"
        }
      ],
      "daily_limits": {
        "Meal": {
          
        }
      },
      "eldate_ISO": "Thu Dec 22 00:00:00 UTC 2016",
      "check_travel_violation": false,
      "user_data": {
        "city": "seattle",
        "country": "united states",
        "amount": 275.97,
        "state": "washington",
        "date": "22-DEC-16",
        "merchant_name": "INGALLINA'S BOX LUNCH"
      },
      "reportId": "0004B7C7DBFA4F0BBAB0",
      "reimbursement_currency": "USD",
      "elineuniqueid": "1",
      "elinetype": "CBCP",
      "elpaidcurr": "USD",
      "elpaidamount": 275.97,
      "chosen_appzen_category": "Meal",
      "statistical_meals_flag": true,
      "elineinfo": "4aa47599",
      "whitelist_merchant": false,
      "elattendees_temp": [
        "Gracelyn Sales",
        " PwA Team Seattle",
        "Gracelyn Sales",
        " PwA Team Seattle"
      ],
      "eriskScore": {
        "duplicate_within_a_report": 0,
        "duplicate_for_same_employee_across_expenses": 0,
        "unauth_expense": 0,
        "fcpa_compliance_check": 0,
        "duplicate_across_employees": 0,
        "receipt_verification": 0,
        "attendee_check": 0,
        "weekend_expense": 0,
        "merchant_category": 0,
        "expense_age": 0,
        "personal_cc_check": 0
      },
      "eltype": "Business Meals - 66030",
      "cardTransactionDetails": {
        "TaxAmount": "0.0",
        "MasterCardCode": "5811",
        "TransactionAlphaCode": "USD",
        "MerchantState": "WA",
        "MerchantCountryCode": "US",
        "PostedAmount": "275.97000000",
        "MerchantReferenceNumber": "",
        "Description": "",
        "TransactionReferenceNumber": "24431066357200860900112",
        "TransactionDate": "2016-12-22T00:00:00",
        "TransactionMerchantName": "INGALLINA'S BOX LUNCH",
        "TransactionID": "4aa47599",
        "CardTypeCode": "VI",
        "PostedDate": "2016-12-23T00:00:00",
        "TransactionCCTType": "RPE",
        "MerchantCity": "206-766-9400",
        "PostedAlphaCode": "USD",
        "AccountNumberLastSegment": "1666",
        "AccountNumber": "oIXU02C9ZT8CyQY8TeOOYZvxT38ji1QObJDNc54UU44=:1:\/iJj3Gia",
        "ExchangeRateFromBillingToEmployeeCurrency": "1.00000000000000",
        "CardDescription": "GRACELYN SALES",
        "TransactionAmount": "275.97000000"
      },
      "eldate": "22-DEC-16",
      "receipt_compulsory": true,
      "elattendees": [
        {
          "employeeFlag": "Y",
          "name": "Gracelyn Sales",
          "attendeeType": "SYSEMP"
        },
        {
          "employeeFlag": "N",
          "name": " PwA Team Seattle",
          "attendeeType": "GROUP"
        }
      ],
      "elno_attendees": 2,
      "receipt_verification": {
        "ocr_date_transpose": false,
        "transposed_date": "not applicable",
        "maximum_delayment": 0,
        "receipt_readable": true,
        "ocr_extract_wrong_amount": false,
        "acceptable_deviation": 0.25,
        "currency": "verified",
        "amount": "verified",
        "user_amount": "not_applicable",
        "receipt_required": true,
        "receipt_missing": false,
        "use_elamount": true,
        "date": "not_applicable",
        "currency_code": "usd"
      },
      "customerId": "2721",
      "ocr_normalized_location": {
        "city": "seattle",
        "country": "united states",
        "longitude": -122.3320708,
        "state": "washington",
        "latitude": 47.6062095,
        "state_code": "wa",
        "formatted_address": "Seattle, WA, USA"
      }
    }
  ],
  "reportLevelImage": "77f0e073-8616-4ac8-b421-329d61ed2331",
  "table": [
    
  ],
  "audit_status": "received from app",
  "percentage_of_verified_expense": 0,
  "report_level_audits": {
    "report_level_audit_details": [
      {
        "risk_level": "LOW",
        "validation_data": {
          
        },
        "rule": "Report Unauthorized Expenses",
        "unauth_items_string": "",
        "risk_message": "No unauthorized items were detected in report.",
        "result": "Passed"
      },
      {
        "validation_data": {
          
        },
        "risk_level": "LOW",
        "risk_message": "No personal credit cards were detected in report.",
        "rule": "Report Personal Credit Card Check",
        "result": "Passed"
      }
    ],
    "eriskComebined": 0
  },
  "risk_score": "LOW",
  "risk_reason": null,
  "policy_violation": 0,
  "status": "Approved and Pending AP Review",
  "risk_distribution": {
    "low_risk": 1,
    "medium_risk": 0,
    "high_risk": 0,
    "not_verified": 0
  },
  "reportId": "0004B7C7DBFA4F0BBAB0",
  "reportLevelImageArray": [
    "90637f3e-8238-4e7a-92f5-e301ab2f0cd1",
    "49511f9e-7e33-4163-9c4e-359f4284dae8"
  ],
  "date": "2017-02-02T06:57:57",
  "caller": "app",
  "userid": "865768@amazon.com",
  "amount": "275.97",
  "orgId": "0",
  "templateId": "0",
  "customerId": "0",
  "reportNumber": "$reportNumber"
}