{
  "expenseReportId": null,
  "userid": "vhassall7@example.com",
  "ecdId": null,
  "ecdPath": null,
  "userName": "Valentijn Hassall",
  "amount": "58.32715616923331",
  "curr": "USD",
  "country": "USD",
  "countryCode": "US",
  "date": "2021-03-01T22:44:54.825+0530",
  "desc": "SYNTHETIC_REPORT",
  "customerId": null,
  "templateId": "$templateId",
  "templateName": "",
  "external_template_id": null,
  "external_template_name": null,
  "emailAddress": "$emailAddress",
  "assigned_auditor": null,
  "orgId": "12580",
  "orgName": "Test Org",
  "externalOrgId": null,
  "externalOrgName": null,
  "groupId": null,
  "pdfUrl": null,
  "oraApproverName": null,
  "oraApproverId": null,
  "headerFields": null,
  "elccpercharges": null,
  "reportNumber": "$reportNumber",
  "reportName": "Purchase batteries for Gamrey UPS",
  "elines": [
    
  ],
  "defaultAcct": null,
  "itin_id": null,
  "status": "AppZen-Review",
  "reportLevelImage": "f4e7a991-0441-427b-ac93-664ca0a98cdf",
  "reportLevelImageArray": [
    "e4e81783-cea0-4c87-9ff3-7dbb9de58692"
  ],
  "report_level_image_details_array": null,
  "addendum": false,
  "custom1": null,
  "custom2": null,
  "custom3": null,
  "custom4": null,
  "custom5": null,
  "custom6": null,
  "custom7": null,
  "custom8": null,
  "custom9": null,
  "custom10": null,
  "custom11": null,
  "custom12": null,
  "custom13": null,
  "custom14": null,
  "custom15": null,
  "custom16": null,
  "custom17": null,
  "custom18": null,
  "custom19": null,
  "custom20": null
}