{
	"run_id": 1,
	"console_host_url":"console.enft.dev.appzen.com",
	"username":"ameya.joshi@appzen.com",
	"password":"Appzen@123",
	"customer_id":"100090",
	"report_name_pattern":"APPZEN_",
	"submission_dates": ["2020-02-01","2020-03-01"],
	"report_number_seed": 7,
	"report_count": {
		"HIGH":1,
		"LOW":1,
		"MEDIUM":1,
		"UNAUDITED":1
	},
	"org_policy_map":{
		"15316":["20016561"]
	},
	"expense_types":["Meal","Hotel","Cab"],
	"expense_purposes":["Business Development", "Annual Training Conference", "Misc Office Expenses"],
	"user_details":
	[{"userName":"Emp 1","emailAddress":"emp1@example.com"},
		{"userName":"Emp 2","emailAddress":"emp2@example.com"}],
	"risk_level":["HIGH","MEDIUM","LOW"],
	"with_receipt":"true",
	"action":["manual"],
	"random_lines": true,
	"max_no_of_lines": 10,
	"max_amount_per_line": 50.00
}